<svg width="17" height="16" viewBox="0 0 17 16" fill="none" xmlns="http://www.w3.org/2000/svg">
<path d="M9.42383 14L15.7875 7.63636L9.42383 1.27273" stroke="black" stroke-width="2.12121" stroke-linecap="round" stroke-linejoin="round"/>
<path d="M14.904 7.60845L2 7.60845" stroke="black" stroke-width="2.12121" stroke-linecap="round" stroke-linejoin="round"/>
</svg>
