<svg width="17" height="16" viewBox="0 0 17 16" fill="none" xmlns="http://www.w3.org/2000/svg">
<path d="M7.57617 2L1.21254 8.36364L7.57617 14.7273" stroke="black" stroke-width="2.12121" stroke-linecap="round" stroke-linejoin="round"/>
<path d="M2.09596 8.39155L15 8.39155" stroke="black" stroke-width="2.12121" stroke-linecap="round" stroke-linejoin="round"/>
</svg>
