<svg width="25" height="25" viewBox="0 0 25 25" fill="none" xmlns="http://www.w3.org/2000/svg">
<path fill-rule="evenodd" clip-rule="evenodd" d="M17.7913 0C19.6276 0.00548829 21.1182 1.47786 21.1532 3.30976L21.1538 3.36538V3.84609L21.6375 3.84615C23.4737 3.85164 24.9644 5.32401 24.9994 7.15592L25 7.21154V16.8298C24.9945 18.666 23.5221 20.1567 21.6902 20.1917L21.6346 20.1923L21.1538 20.1922V22.5769C21.1538 23.9018 20.0906 24.9783 18.7708 24.9997L18.7308 25H6.26923C4.94438 25 3.86788 23.9367 3.84648 22.617L3.84615 22.5769V20.1922L3.36251 20.1923C1.5263 20.1868 0.0356231 18.7145 0.000614165 16.8825L0 16.8269V7.20867C0.00548829 5.37245 1.47786 3.88178 3.30976 3.84677L3.36538 3.84615L3.84615 3.84609V3.36251C3.85164 1.5263 5.32401 0.0356231 7.15592 0.000614165L7.21154 0H17.7913ZM18.7308 12.5H6.26923C5.9982 12.5 5.77754 12.7156 5.76946 12.9847L5.76923 13V22.5769C5.76923 22.848 5.98487 23.0686 6.25394 23.0767L6.26923 23.0769H18.7308C19.0018 23.0769 19.2225 22.8613 19.2305 22.5922L19.2308 22.5769V13C19.2308 12.7239 19.0069 12.5 18.7308 12.5ZM3.36826 5.76923L21.6346 5.76923L21.6584 5.76949C22.4418 5.78454 23.0746 6.42522 23.0769 7.21441L23.0769 16.8269L23.0767 16.8507C23.0616 17.6341 22.4209 18.2669 21.6317 18.2692L21.1538 18.2692V13L21.1535 12.9599C21.1321 11.6402 20.0556 10.5769 18.7308 10.5769H6.26923L6.22916 10.5772C4.90941 10.5986 3.84615 11.6752 3.84615 13V18.2692L3.36538 18.2692L3.3416 18.269C2.55824 18.2539 1.92543 17.6132 1.92307 16.8241L1.92308 7.21154L1.92334 7.18775C1.93838 6.4044 2.57906 5.77158 3.36826 5.76923ZM20.6731 6.73077C21.4696 6.73077 22.1154 7.37651 22.1154 8.17308C22.1154 8.96964 21.4696 9.61539 20.6731 9.61539C19.8765 9.61539 19.2308 8.96964 19.2308 8.17308C19.2308 7.37651 19.8765 6.73077 20.6731 6.73077ZM5.76949 3.3416C5.78454 2.55824 6.42522 1.92543 7.21441 1.92307L17.7885 1.92308L17.8122 1.92334C18.5956 1.93838 19.2284 2.57906 19.2308 3.36826L19.2308 3.84609H5.76923V3.36538L5.76949 3.3416Z" fill="white"/>
</svg>
