<svg width="41" height="18" viewBox="0 0 41 18" fill="none" xmlns="http://www.w3.org/2000/svg">
<path d="M7.43703 15.52H3.99703L3.14903 18H0.957031L4.98903 6.72H6.60503L10.637 18H8.33303L7.43703 15.52ZM4.55703 13.76H6.95703L6.12503 11.264L5.78903 9.504H5.70903L5.37303 11.28L4.55703 13.76ZM23.8047 14.125H18.4297L17.1047 18H13.6797L19.9797 0.374999H22.5047L28.8047 18H25.2047L23.8047 14.125ZM19.3047 11.375H23.0547L21.7547 7.475L21.2297 4.725H21.1047L20.5797 7.5L19.3047 11.375ZM29.8914 8.15H33.9414V3.925H36.8664V8.15H40.9414V10.95H36.8664V15.225H33.9414V10.95H29.8914V8.15Z" fill="white"/>
</svg>
