<svg width="36" height="18" viewBox="0 0 36 18" fill="none" xmlns="http://www.w3.org/2000/svg">
<path d="M6.61184 15.52H3.17184L2.32384 18H0.131836L4.16384 6.72H5.77984L9.81184 18H7.50784L6.61184 15.52ZM3.73184 13.76H6.13184L5.29984 11.264L4.96384 9.504H4.88384L4.54784 11.28L3.73184 13.76ZM22.9795 14.125H17.6045L16.2795 18H12.8545L19.1545 0.374999H21.6795L27.9795 18H24.3795L22.9795 14.125ZM18.4795 11.375H22.2295L20.9295 7.475L20.4045 4.725H20.2795L19.7545 7.5L18.4795 11.375ZM29.3412 9.375H35.6162V12.25H29.3412V9.375Z" fill="white"/>
</svg>
